	GOterm	Description	ES	NES	Padj
1	GO:0002440	production of molecular mediator of immune response	-0.478738659782485	-1.83383688572806	0.00719393007335367
2	GO:0071622	regulation of granulocyte chemotaxis	-0.791806924454083	-2.15890577482617	0.0124389875512249
3	GO:0045785	positive regulation of cell adhesion	-0.421300081593094	-1.67951337634098	0.0124389875512249
4	GO:0086001	cardiac muscle cell action potential	0.869595144081764	2.02368083312684	0.0124389875512249
5	GO:0098609	cell-cell adhesion	-0.377839067038313	-1.56381869912234	0.0124389875512249
6	GO:0002252	immune effector process	-0.383674431313705	-1.57654593330199	0.0124389875512249
7	GO:0033108	mitochondrial respiratory chain complex assembly	0.610273945748164	1.93822888598879	0.0124389875512249
8	GO:0010257	NADH dehydrogenase complex assembly	0.667245796608132	1.97175168167524	0.0230769509448108
9	GO:0032981	mitochondrial respiratory chain complex I assembly	0.667245796608132	1.97175168167524	0.0230769509448108
10	GO:0030155	regulation of cell adhesion	-0.369150694641789	-1.5298398719901	0.0230769509448108
11	GO:0002292	T cell differentiation involved in immune response	-0.645586160289582	-2.00701191565842	0.0392246157431925
12	GO:0061337	cardiac conduction	0.810856833174501	1.97307858523319	0.0437527642221053
13	GO:0022407	regulation of cell-cell adhesion	-0.403555654757002	-1.58888846775942	0.0437527642221053
14	GO:0086002	cardiac muscle cell action potential involved in contraction	0.87872107913367	1.90251241153225	0.0468201473357467
15	GO:0086065	cell communication involved in cardiac conduction	0.888776425119454	1.88560769978185	0.0468201473357467
16	GO:0002250	adaptive immune response	-0.393260836949326	-1.57379084333772	0.0468201473357467
