	GOterm	Description	ES	NES	Padj
1	GO:0003735	structural constituent of ribosome	0.662523627366896	2.26741588075674	4.09907602701112e-09
2	GO:0038023	signaling receptor activity	-0.429711764412055	-1.72575197351125	2.98186616661531e-05
3	GO:0060089	molecular transducer activity	-0.429711764412055	-1.72575197351125	2.98186616661531e-05
4	GO:0004888	transmembrane signaling receptor activity	-0.459197451056881	-1.81480137350065	7.33761075133148e-05
5	GO:0042608	T cell receptor binding	-0.823861448458434	-2.08858528905789	0.0080817282844241
6	GO:0005198	structural molecule activity	0.43441590704559	1.60612137160918	0.011753512342047
7	GO:0003779	actin binding	-0.385126961847313	-1.52061200488965	0.0453810015067393
8	GO:1901618	organic hydroxy compound transmembrane transporter activity	-0.845889521404105	-1.91223042542218	0.0494061371407965
9	GO:0004222	metalloendopeptidase activity	0.636731419827046	1.82404653105689	0.0494061371407965
