0610009B22Rik
0610009E02Rik
0610025J13Rik
0610040F04Rik
1110002L01Rik
1110006O24Rik
1110019D14Rik
1110038B12Rik
1300002E11Rik
1500002C15Rik
1600012H06Rik
1600023N17Rik
1700001G11Rik
1700001G17Rik
1700003D09Rik
1700003G18Rik
1700007L15Rik
1700008J07Rik
1700010I14Rik
1700016A09Rik
1700016L04Rik
1700017J07Rik
1700020G03Rik
1700020L13Rik
1700022N22Rik
1700027J07Rik
1700028E10Rik
1700030C12Rik
1700034P13Rik
1700037C18Rik
1700055D18Rik
1700056E22Rik
1700065D16Rik
1700066M21Rik
1700082M22Rik
1700084E18Rik
1700086O06Rik
1700096K18Rik
1700100I10Rik
1700102H20Rik
1700105P06Rik
1700113A16Rik
1700120B22Rik
1700120C14Rik
1700122C19Rik
1700123M08Rik
1700123O20Rik
1810009A15Rik
1810012K16Rik
1810021B22Rik
1810021M19Rik
1810037I17Rik
1810041H14Rik
1810044D09Rik
1810055G02Rik
1810062G17Rik
1810062O18Rik
2010001A14Rik
2010109A12Rik
2010315B03Rik
2010320M18Rik
2210016L21Rik
2210406O10Rik
2210408I21Rik
2310001H17Rik
2310001K24Rik
2310010J17Rik
2310011J03Rik
2310040G24Rik
2310047D07Rik
2310057M21Rik
2310068J16Rik
2310075K07Rik
2410002F23Rik
2410004B18Rik
2410006H16Rik
2500004C02Rik
2510003B16Rik
2600006K01Rik
2610017A05Rik
2610044O15Rik8
2700038G22Rik
2700049A03Rik
2700054A10Rik
2700097O09Rik
2810001A02Rik
2810001G20Rik
2810002D19Rik
2810004N23Rik
2810013P06Rik
2810025M15Rik
2810029C07Rik
2810403D21Rik
2810425M01Rik
2810454H06Rik
2900009J06Rik
2900052L18Rik
2900060B14Rik
2900076A07Rik
2900093K20Rik
3110009E18Rik
3110021A11Rik
3110040N11Rik
3110056K07Rik
3110070M22Rik
4632404H12Rik
4732416N19Rik
4732491K20Rik
4831440E17Rik
4833417C18Rik
4833418N02Rik
4833420G17Rik
4833438C02Rik
4833439L19Rik
4921507P07Rik
4930412M03Rik
4930417O22Rik
4930429F24Rik
4930455D15Rik
4930456A14Rik
4930465K10Rik
4930471M09Rik
4930473A02Rik
4930481B07Rik
4930502E09Rik
4930503L19Rik
4930505N22Rik
4930507D05Rik
4930512B01Rik
4930513N10Rik
4930520E11Rik
4930520O04Rik
4930522L14Rik
4930523C07Rik
4930539J05Rik
4930549G23Rik
4930555B11Rik
4930558J18Rik
4930563E22Rik
4930577N17Rik
4930578L24Rik
4930578M01Rik
4930579G24Rik
4930593A02Rik
4930597A21Rik
4931408C20Rik
4931415C17Rik
4931440P22Rik
4932412D23Rik
4932431P20Rik
4933405D12Rik
4933406C10Rik
4933412E12Rik
4933427D14Rik
4933427E11Rik
4933430I17Rik
4933433G15Rik
4933434E20Rik
4933439K11Rik
5031425E22Rik
5031439G07Rik
5330439K02Rik
5430400D12Rik
5430405H02Rik
5530601H04Rik
5730405O15Rik
5730408K05Rik
5730420D15Rik
5830408C22Rik
5830448L01Rik
5930430L01Rik
6030442K20Rik
6030443J06Rik
6030458C11Rik
6330418K02Rik
6430548M08Rik
6430550D23Rik
6430573P05Rik
6430590A07Rik
8430429K09Rik
9030404E10Rik
9130023H24Rik
9230104M06Rik
9230110K08Rik
9230116N13Rik
9330020H09Rik
9330104G04Rik
9330136K24Rik
9330159M07Rik
9330175E14Rik
9430037G07Rik
9530052C20Rik
9930012K11Rik
A230056J06Rik
A230056P14Rik
A230072C01Rik
A230107N01Rik
A330035P11Rik
A330069E16Rik
A430005L14Rik
A430033K04Rik
A430046D13Rik
A430088P11Rik
A430105J06Rik
A530072M11Rik
A530088E08Rik
A630001G21Rik
A630019I02Rik
A630026N12Rik
A730081D07Rik
A930005H10Rik
A930015D03Rik
AB124611
AF357399
AI467606
AI597479
AI662270
AI837181
AI847159
AI987944
AU019990
AU022252
AU040320
AV039307
AV051173
AV099323
AW554918
AY074887
Aaas
Aagab
Aamdc
Aamp
Aars
Aasdhppt
Aatf
Abca1
Abca17
Abca3
Abcb4
Abcb7
Abcb8
Abcb9
Abcc10
Abcd1
Abcd4
Abcf1
Abcf2
Abhd11
Abhd12
Abhd13
Abi1
Abi3
Abitram
Abracl
Abraxas2
Abt1
Abtb1
Acaa1a
Acaa2
Acad9
Acadsb
Acbd5
Acbd6
Accs
Acin1
Acox1
Acox3
Acp2
Acpp
Acsf2
Acsl4
Acss2
Actmap
Actn4
Actr1a
Actr2
Actr3
Actr5
Actr8
Acvr1b
Adal
Adam10
Adam17
Adam9
Adamts10
Adamts6
Adat2
Adat3
Adck1
Adck5
Add1
Adgre5
Adi1
Adipor1
Adissp
Adnp
Adpgk
Adprm
Adsl
Aen
Aff1
Aff3
Afg1l
Aftph
Aga
Agbl5
Agfg1
Aggf1
Agk
Agl
Ago3
Agpat4
Agtpbp1
Ahctf1
Ahcyl1
Ahcyl2
Ahsa1
Ahsa2
Aimp1
Aimp2
Aipl1
Ajuba
Ak2
Ak6
Akap1
Akap10
Akap11
Akap12
Akap13
Akap8
Akirin2
Akr1b10
Akr1b3
Akr1e1
Akt1s1
Akt2
Alad
Aldh18a1
Aldh3a2
Aldh6a1
Aldh7a1
Alg1
Alg10b
Alg14
Alg2
Alg3
Alg5
Alkbh1
Alkbh3
Alkbh5
Alkbh8
Alms1
Alyref
Alyref2
Amacr
Ambra1
Amd1
Amer1
Amn1
Amz2
Anapc1
Anapc11
Anapc16
Anapc4
Anapc7
Ang
Angptl2
Angptl4
Ankfy1
Ankhd1
Ankib1
Ankle1
Ankle2
Ankra2
Ankrd11
Ankrd16
Ankrd2
Ankrd24
Ankrd28
Ankrd37
Ankrd39
Ankrd40
Ankrd42
Ankrd49
Anks1
Ankzf1
Ano6
Anp32b
Anp32e
Antkmt
Anxa1
Anxa11
Anxa5
Ap1ar
Ap1g1
Ap1g2
Ap1m1
Ap1s1
Ap2a1
Ap2s1
Ap3m2
Ap3s1
Ap3s2
Ap4b1
Ap4e1
Ap4m1
Ap5m1
Ap5s1
Ap5z1
Apaf1
Apba3
Apc
Apeh
Apex1
Apex2
Api5
Apip
Aplf
Aplp2
Apmap
Apobec1
Apobec4
Apold1
Apoo
Appbp2
Appbp2os
Appl1
Appl2
Aprt
Aqr
Arap1
Arf1
Arf2
Arf4
Arf6
Arfip1
Arfrp1
Arhgap1
Arhgap11a
Arhgap12
Arhgap18
Arhgap21
Arhgap22
Arhgap25
Arhgap30
Arhgap33
Arhgap35
Arhgdib
Arhgef17
Arhgef2
Arid1a
Arid3a
Arid4a
Arid4b
Arid5a
Ark2n
Arl1
Arl13b
Arl14ep
Arl15
Arl16
Arl2
Arl3
Arl4a
Arl4aos
Arl6
Arl6ip1
Arl6ip5
Arl6ip6
Arl8a
Armc10
Armc5
Armc6
Armc7
Armc8
Armcx5
Armh3
Armt1
Arnt
Arpc2
Arpc4
Arpp19
Arrb1
Arrb2
Arrdc1
Arrdc2
Arsb
Arsg
Arv1
Asb13
Asb6
Asb7
Ascc1
Ascc2
Ascc3
Asf1b
Asns
Aspm
Ass1
Aste1
Asxl1
Asxl2
Atad1
Atad2
Atad3a
Atad3aos
Ate1
Atf2
Atf5
Atf6b
Atf7
Atg10
Atg12
Atg14
Atg16l1
Atg16l2
Atg2a
Atg2b
Atg3
Atg5
Atg7
Atg9a
Atic
Atl2
Atl3
Atm
Atosa
Atox1
Atp13a1
Atp13a2
Atp13a3
Atp2a3
Atp2b1
Atp5g1
Atp5g2
Atp5j
Atp5j2
Atp5mpl
Atp5pb
Atp6ap2
Atp6v0a1
Atp6v0d1
Atp6v1a
Atp6v1b2
Atp6v1c1
Atp6v1d
Atp6v1e1
Atp7a
Atp8a1
Atpsckmt
Atr
Atxn1l
Atxn7l1
Atxn7l3
Aunip
Aup1
Aurka
Aurkaip1
Avpi1
Awat2
Axdnd1
Azi2
B230208H11Rik
B230217O12Rik
B230307C23Rik
B230354K17Rik
B230369F24Rik
B330016D10Rik
B3galnt2
B3galt6
B3galt9
B3gat3
B4galnt1
B9d2
BB557941
BC004004
BC005624
BC028528
BC031181
BC031361
BC035044
BC037704
BC048644
Babam2
Bad
Bag1
Bag5
Bag6
Bambi
Banf1
Bank1
Bap1
Batf
Bbip1
Bbs12
Bbs4
Bbs9
Bc1
Bcas2
Bccip
Bcdin3d
Bcl10
Bcl2l11
Bcl2l2
Bcl6
Bcl7a
Bcl7b
Bcl7c
Bcl9l
Bclaf3
Bcs1l
Becn1
Bet1
Bet1l
Bfar
Bfsp1
Bhlha15
Bhlhe40
Bicd2
Bin3
Birc2
Birc3
Birc5
Birc6
Blmh
Blnk
Bloc1s1
Blvra
Bms1
Bmt2
Bnip2
Bnip3
Bnip3l
Bod1l
Bola2
Bola3
Borcs6
Borcs8
Bpnt2
Braf
Brca1
Brca2
Brd4
Brd7
Brd8
Brf1
Brip1
Brip1os
Brms1l
Brpf1
Brwd3
Bsdc1
Bsg
Bst2
Btaf1
Btbd2
Btbd8
Btf3
Btf3l4
Btg1
Btg2
Btrc
Bub1b
Bub3
Bud13
Bud23
Bud31
Bzw1
C030013C21Rik
C030016D13Rik
C030034I22Rik
C130046K22Rik
C1galt1
C1qbp
C230035I16Rik
C230037L18Rik
C2cd2l
C2cd3
C2cd5
C530005A16Rik
C920006O11Rik
C920009B18Rik
C920021L13Rik
C9orf72
Caap1
Cab39
Cab39l
Cactin
Cacul1
Cage1
Calcrl
Calm2
Calm3
Calu
Camkmt
Caml
Camsap2
Camta1
Camta2
Cand1
Cap1
Capn10
Capn15
Capn7
Caprin2
Capzb
Car7
Card6
Carf
Carm1
Carmil2
Carnmt1
Cars
Cars2
Casc3
Caskin2
Casp1
Casp2
Casp8
Casp8ap2
Casp9
Cass4
Cat
Catsper2
Catspere2
Cbfa2t2
Cbfb
Cbl
Cblb
Cbll1
Cbln3
Cbx1
Cbx4
Cbx6
Cc2d1b
Ccar1
Ccar2
Ccdc107
Ccdc110
Ccdc112
Ccdc115
Ccdc124
Ccdc126
Ccdc127
Ccdc134
Ccdc14
Ccdc142
Ccdc146
Ccdc150
Ccdc157
Ccdc159
Ccdc163
Ccdc166
Ccdc17
Ccdc171
Ccdc18
Ccdc181
Ccdc28b
Ccdc32
Ccdc34
Ccdc47
Ccdc59
Ccdc62
Ccdc71l
Ccdc77
Ccdc78
Ccdc88a
Ccdc88b
Ccdc88c
Ccdc9
Ccdc93
Cchcr1
Ccin
Ccm2
Ccna2
Ccnb1
Ccnc
Ccnf
Ccnh
Ccni
Ccnk
Ccnt2
Ccny
Ccpg1
Cct4
Cct5
Cct6a
Cct6b
Cct7
Ccz1
Cd151
Cd164
Cd180
Cd19
Cd274
Cd2bp2
Cd37
Cd44
Cd48
Cd53
Cd69
Cd72
Cd79a
Cd93
Cd99l2
Cdan1
Cdc123
Cdc20
Cdc20b
Cdc25a
Cdc27
Cdc34
Cdc42ep3
Cdc42se2
Cdc5l
Cdc7
Cdca5
Cdcp2
Cdh24
Cdin1
Cdip1
Cdipt
Cdiptos
Cdk1
Cdk10
Cdk11b
Cdk16
Cdk17
Cdk19
Cdk2
Cdk5
Cdk5rap2
Cdk5rap3
Cdkl1
Cdkl5
Cdkn2aip
Cdkn2aipnl
Cdkn2c
Cdkn2d
Cdkn3
Cds2
Cdt1
Ceacam1
Cebpz
Cebpzos
Cecr2
Cenpa
Cenpc1
Cenpe
Cenpj
Cenpl
Cenpn
Cenpo
Cenpp
Cenps
Cenpu
Cenpw
Cenpx
Cep120
Cep128
Cep131
Cep152
Cep162
Cep164
Cep170
Cep19
Cep192
Cep20
Cep250
Cep290
Cep295
Cep350
Cep55
Cep57
Cep57l1
Cep72
Cep76
Cep85
Cep95
Cept1
Cers4
Cert1
Cetn2
Cetn4
Cfap276
Cfap418
Cfap52
Cfap58
Cfap68
Cfi
Cfl1
Cgrrf1
Chac1
Chac2
Chaf1a
Chaf1b
Champ1
Chaserr
Chchd2
Chchd5
Chct1
Chd1l
Chd8
Chd9
Chek2
Cherp
Chid1
Chmp2a
Chmp2b
Chmp3
Chmp5
Chordc1
Chp1
Chrac1
Chtf18
Chuk
Ciao2a
Ciao2b
Ciapin1
Cib1
Cibar2
Cic
Cip2a
Cipc
Cir1
Cisd2
Cish
Cited2
Ciz1
Ckap2
Cks2
Clasrp
Clcn2
Clcn3
Clcn5
Clcn7
Cldnd1
Clec2d
Clic4
Cln5
Clns1a
Clock
Clp1
Clpb
Clptm1l
Clpx
Cltb
Cltc
Cluh
Cmc1
Cmip
Cmpk1
Cmss1
Cmtm7
Cmtm8
Cnbd2
Cnga4
Cnksr3
Cnn3
Cnnm3
Cnnm4
Cnot1
Cnot10
Cnot11
Cnot3
Cnot4
Cnot6
Cnot8
Cnot9
Cnppd1
Cnpy3
Cntrl
Coa4
Coa5
Coa6
Coa7
Coa8
Coasy
Cog2
Cog3
Cog4
Cog8
Col1a1
Colgalt1
Commd4
Commd5
Commd6
Commd7
Comtd1
Cop1
Copa
Copb1
Cope
Copg1
Cops2
Cops4
Cops7b
Copz1
Coq10a
Coq2
Coq3
Coq5
Coq6
Coq8b
Coq9
Coro1b
Coro2a
Coro7
Cox10
Cox11
Cox14
Cox15
Cox18
Cox19
Cox20
Cox7a1
Cox7a2
Cox8a
Cpd
Cpeb4
Cplane1
Cpm
Cpne3
Cpped1
Cpq
Cpsf3
Cpsf4
Cptp
Cr1l
Cr2
Cramp1
Crat
Crbn
Crcp
Creb3
Creb3l4
Crebl2
Creld1
Crem
Cript
Crk
Crkl
Crlf2
Crlf3
Crocc
Crot
Crtc2
Cryl1
Cryzl1
Cs
Csad
Cse1l
Csf2rb
Csnk1a1
Csnk1d
Csnk1g1
Csnk2b
Csrp2
Cst3
Cstdc2
Cstf1
Cstf2
Cstf3
Ctbp1
Ctc1
Ctdnep1
Ctdsp1
Ctdsp2
Ctdspl2
Ctnna3
Ctnnb1
Ctsa
Ctsc
Ctsd
Cuedc2
Cul3
Cul4a
Cutc
Cwc15
Cwc25
Cwc27
Cwf19l1
Cwf19l2
Cxcr4
Cxcr5
Cxxc5
Cyb561d2
Cyb5a
Cyb5d1
Cyb5r1
Cyb5r4
Cyba
Cybc1
Cyfip1
Cyld
Cyp20a1
Cyp4f13
Cyren
Cyth2
Cyth4
Czib
D030040B21Rik
D030047H15Rik
D030056L22Rik
D11Wsu47e
D130040H23Rik
D16Ertd472e
D17H6S53E
D17H6S56E-5
D230017M19Rik
D2hgdh
D330041H03Rik
D330050I16Rik
D430020J02Rik
D5Ertd605e
D6Wsu163e
D730005E14Rik
D830015G05Rik
D830039M14Rik
D830050J10Rik
D930003E18Rik
Daam1
Dact3
Dag1
Dalrd3
Dap
Dapp1
Dars
Dars2
Dazap1
Dbi
Dbt
Dcaf11
Dcaf13
Dcaf15
Dcaf17
Dcaf6
Dcaf8
Dck
Dclk2
Dclre1b
Dclre1c
Dcp1a
Dcp1b
Dcp2
Dcps
Dctn1
Dctn2
Dctn4
Dctn5
Dctpp1
Dcun1d2
Dcun1d3
Ddb1
Ddb2
Ddhd1
Ddhd2
Ddias
Ddit3
Ddit4
Ddost
Ddx10
Ddx11
Ddx17
Ddx18
Ddx20
Ddx23
Ddx28
Ddx41
Ddx42
Ddx47
Ddx49
Ddx5
Ddx50
Ddx51
Ddx55
Ddx56
Ddx59
Def6
Degs1
Dele1
Dennd10
Dennd1a
Dennd2c
Dennd4b
Dennd4c
Dennd6b
Denr
Depdc1b
Depdc5
Deptor
Derl1
Derl2
Desi1
Desi2
Det1
Dgat1
Dgke
Dgkeos
Dgkg
Dglucy
Dhcr7
Dhdds
Dhodh
Dhps
Dhrs1
Dhrs11
Dhrs13
Dhrs13os
Dhrs4
Dhrs7
Dhx16
Dhx29
Dhx33
Dhx34
Dhx37
Dhx38
Dhx8
Dicer1
Dimt1
Dipk2a
Dlat
Dleu2
Dlg1
Dlgap5
Dmtf1
Dna2
Dnaaf10
Dnaaf5
Dnah1
Dnai1
Dnai4
Dnai7
Dnajb1
Dnajb12
Dnajb4
Dnajb6
Dnajb9
Dnajc10
Dnajc13
Dnajc14
Dnajc19
Dnajc24
Dnajc30
Dnajc5
Dnase1l1
Dnase2a
Dnpep
Dnttip2
Dock2
Dohh
Dok1
Dok2
Dok3
Donson
Dop1a
Dop1b
Dot1l
Dpcd
Dpf2
Dph2
Dph3
Dph5
Dph6
Dpm1
Dpp3
Dpp9
Dpy19l1
Dpy19l4
Dr1
Dram2
Drap1
Drosha
Dscc1
Dsn1
Dstn
Dstyk
Dtd1
Dtl
Dtnb
Dtwd1
Dtx3l
Dtymk
Dubr
Dus2
Dusp1
Dusp10
Dusp11
Dusp2
Dusp5
Dusp6
Dusp7
Dut
Dvl3
Dxo
Dync1i2
Dync1li1
Dynlrb1
Dynlt1b
Dynlt1f
Dynlt2b
Dzip3
E130304I02Rik
E130307A14Rik
E130311K13Rik
E230015B07Rik
E230016M11Rik
E2f3
E2f4
E2f7
E2f8
E330020D12Rik
E430024I08Rik
Eaf1
Eaf2
Eapp
Ears2
Ebf1
Ebp
Ecd
Ece1
Echs1
Ecsit
Edem1
Edf1
Eea1
Eed
Eef1a1
Eef1akmt2
Eef1akmt4
Eef1b2
Eef1d
Eef1ece2
Eef1g
Eef2k
Eefsec
Efcab14
Efcab7
Efl1
Egln1
Egln2
Ehbp1
Ehd4
Eif1ad
Eif2a
Eif2ak1
Eif2ak3
Eif2b1
Eif2b2
Eif2b3
Eif2b4
Eif2b5
Eif2d
Eif2s1
Eif3a
Eif3e
Eif3f
Eif3i
Eif3j1
Eif3k
Eif3l
Eif4a3
Eif4e
Eif4e2
Eif4ebp1
Eif4g1
Eif5
Eif6
Elac2
Elapor1
Eldr
Elf1
Elf2
Elk3
Elk4
Ell3
Elmo1
Elmo2
Elmod2
Elmod3
Elob
Eloc
Elovl1
Elovl5
Elovl6
Elp1
Elp3
Elp5
Elp6
Emc10
Emc2
Emc3
Emc4
Emc6
Emd
Eme1
Emp3
Enc1
Endod1
Enkur
Eno1
Ensa
Entpd7
Eny2
Ep300
Ep400
Epas1
Epb41l4aos
Epc1
Epc2
Epg5
Epm2aip1
Eps15
Eps15l1
Erap1
Erbin
Ercc3
Ercc6l
Ergic2
Ergic3
Eri1
Eri2
Erich1
Ero1b
Erp44
Esco2
Esd
Esf1
Esyt1
Etf1
Etfb
Etfdh
Etfrf1
Etohd2
Evi2
Evi2a
Evpl
Ewsr1
Exd1
Exd2
Exo5
Exoc1
Exoc3l
Exoc4
Exoc5
Exoc7
Exosc10
Exosc4
Exosc6
Exosc7
Exosc8
Ezr
F2r
F730043M19Rik
F730311O21Rik
F830010H11Rik
F8a
Faap20
Fabp5
Fadd
Fads1
Faf2
Fahd2a
Faim
Fam104a
Fam110a
Fam111a
Fam117b
Fam118a
Fam120b
Fam133b
Fam136a
Fam149b
Fam151b
Fam161b
Fam168a
Fam174a
Fam174c
Fam185a
Fam187b
Fam207a
Fam20b
Fam210a
Fam210b
Fam216a
Fam219a
Fam220a
Fam221a
Fam227b
Fam3a
Fam3c
Fam72a
Fam76a
Fam76b
Fam8a1
Fam90a1b
Fam98a
Fan1
Fancb
Fancd2
Fance
Fanci
Far1
Farsb
Fasn
Fastkd1
Fastkd3
Faxdc2
Fbf1
Fbh1
Fbl
Fbrs
Fbxl13
Fbxl15
Fbxl4
Fbxl9
Fbxo11
Fbxo2
Fbxo28
Fbxo30
Fbxo32
Fbxo34
Fbxo36
Fbxo38
Fbxo42
Fbxo44
Fbxo45
Fbxo46
Fbxo47
Fbxo48
Fbxo6
Fbxw11
Fbxw2
Fbxw7
Fcgr2b
Fcho2
Fchsd2
Fcnaos
Fcrla
Fdps
Fdxacb1
Fdxr
Fem1a
Fem1b
Fem1c
Fez2
Fgfr1op2
Fh1
Fhip1b
Fhip2a
Fhod1
Fibp
Ficd
Fignl1
Firre
Firrm
Fis1
Fitm2
Fiz1
Fkbp15
Fkbp1a
Flii
Flt3l
Fmc1
Fmo5
Fn3k
Fn3krp
Fnbp1
Fndc3a
Fntb
Foxc1
Foxd2
Foxd2os
Foxo1
Foxred1
Fpgt
Fra10ac1
Frg1
Frmd6
Frmd8os
Fry
Fubp1
Fubp3
Fuca1
Fuca2
Fundc1
Fus
Fut8
Fv1
Fxr2
Fyn
Fyttd1
Fzd5
Fzd7
Fzr1
G2e3
G3bp1
G3bp2
Gabarapl2
Gabpa
Gabpb2
Gadd45a
Gadd45b
Gak
Gale
Galk1
Galk2
Galns
Gamt
Gan
Ganc
Gapdh
Garin5a
Gars
Gart
Gas2l3
Gas5
Gatad1
Gatad2a
Gatad2b
Gatb
Gatc
Gba2
Gbe1
Gbp3
Gbp7
Gcc1
Gcdh
Gcgr
Gcsh
Gdap2
Gdi2
Gdpd1
Gdpgp1
Gemin2
Gemin6
Gen1
Get4
Gfi1b
Gfm1
Gfm2
Gfod1
Gfod2
Gfpt1
Gfus
Ggct
Ggnbp2
Ggnbp2os
Ggps1
Gigyf2
Gimap8
Gimap9
Gin1
Gins2
Gins3
Gins4
Git1
Gla
Glb1
Glce
Glg1
Glipr2
Glod4
Glrx
Glrx2
Glrx5
Gltp
Glud1
Gm10322
Gm10373
Gm10384
Gm10432
Gm10433
Gm10509
Gm10575
Gm10614
Gm10631
Gm10644
Gm10778
Gm10785
Gm10822
Gm10847
Gm10858
Gm10910
Gm10941
Gm10961
Gm11201
Gm11335
Gm11423
Gm11496
Gm11520
Gm11696
Gm11753
Gm11769
Gm11963
Gm12061
Gm12258
Gm12279
Gm12359
Gm12522
Gm12576
Gm12743
Gm12758
Gm12762
Gm12843
Gm12915
Gm13012
Gm13073
Gm13270
Gm13277
Gm13283
Gm13286
Gm13375
Gm13421
Gm13483
Gm13707
Gm13822
Gm14167
Gm14230
Gm14634
Gm14966
Gm15323
Gm15326
Gm15408
Gm15411
Gm15471
Gm15489
Gm15541
Gm15545
Gm15559
Gm15579
Gm15612
Gm15634
Gm15706
Gm15708
Gm15834
Gm15860
Gm15912
Gm15927
Gm16023
Gm16062
Gm16174
Gm16225
Gm16341
Gm16364
Gm16537
Gm16578
Gm16618
Gm16619
Gm16638
Gm16675
Gm16712
Gm16740
Gm16796
Gm17039
Gm17102
Gm17249
Gm17315
Gm17382
Gm17399
Gm17484
Gm17518
Gm17745
Gm17762
Gm17767
Gm17801
Gm18280
Gm19412
Gm19605
Gm19710
Gm1976
Gm20337
Gm20522
Gm20604
Gm20716
Gm20732
Gm20753
Gm2093
Gm21057
Gm21992
Gm22068
Gm22357
Gm22489
Gm22513
Gm22634
Gm23119
Gm23137
Gm23205
Gm23220
Gm23296
Gm23301
Gm23444
Gm23639
Gm23723
Gm23849
Gm23969
Gm23971
Gm24016
Gm24150
Gm24265
Gm24283
Gm24305
Gm24311
Gm24355
Gm24407
Gm24497
Gm24537
Gm2479
Gm24859
Gm24871
Gm24950
Gm25081
Gm25099
Gm25296
Gm25541
Gm25744
Gm25794
Gm25939
Gm26080
Gm26135
Gm26224
Gm26397
Gm26511
Gm26533
Gm26536
Gm26564
Gm26567
Gm26611
Gm26710
Gm26730
Gm26740
Gm26766
Gm26797
Gm26812
Gm26901
Gm26917
Gm26944
Gm27042
Gm28042
Gm28043
Gm2848
Gm28535
Gm2885
Gm29417
Gm29642
Gm29878
Gm29942
Gm29998
Gm2a
Gm30019
Gm30021
Gm30044
Gm30091
Gm30122
Gm30141
Gm30246
Gm30284
Gm30352
Gm30364
Gm30368
Gm30369
Gm30375
Gm30411
Gm30470
Gm30510
Gm30527
Gm30537
Gm30599
Gm30601
Gm30628
Gm30726
Gm30745
Gm30836
Gm30840
Gm30948
Gm30968
Gm31005
Gm31024
Gm31072
Gm31092
Gm31151
Gm31179
Gm31201
Gm31223
Gm31342
Gm31386
Gm31410
Gm31493
Gm31616
Gm31619
Gm31633
Gm31645
Gm31665
Gm31667
Gm31676
Gm31735
Gm31812
Gm31872
Gm31986
Gm31992
Gm32029
Gm32031
Gm32184
Gm32196
Gm32230
Gm32235
Gm32294
Gm32313
Gm32327
Gm32401
Gm32518
Gm32584
Gm32630
Gm32655
Gm32684
Gm32703
Gm32725
Gm32816
Gm32823
Gm32906
Gm32934
Gm33046
Gm33054
Gm33258
Gm33310
Gm33330
Gm33363
Gm33427
Gm33454
Gm33482
Gm33517
Gm33578
Gm33641
Gm33728
Gm33851
Gm33887
Gm33971
Gm34041
Gm34095
Gm34121
Gm34213
Gm34284
Gm34296
Gm34315
Gm34403
Gm34451
Gm34500
Gm34624
Gm34655
Gm34657
Gm34758
Gm34844
Gm34847
Gm34877
Gm34931
Gm34963
Gm34983
Gm34995
Gm35035
Gm35048
Gm35150
Gm35198
Gm35202
Gm35243
Gm35260
Gm35344
Gm35347
Gm35353
Gm35399
Gm35410
Gm35417
Gm35476
Gm35486
Gm35602
Gm35621
Gm35795
Gm35824
Gm35978
Gm35986
Gm36010
Gm36109
Gm36111
Gm36118
Gm36208
Gm36239
Gm36246
Gm36331
Gm36371
Gm36372
Gm36411
Gm36417
Gm36429
Gm36430
Gm36441
Gm36446
Gm36449
Gm36457
Gm36462
Gm36486
Gm36493
Gm36496
Gm36499
Gm36523
Gm36608
Gm36738
Gm36757
Gm36839
Gm36904
Gm37294
Gm3740
Gm38171
Gm38250
Gm38293
Gm38331
Gm38431
Gm38500
Gm38525
Gm38561
Gm38599
Gm38618
Gm38735
Gm38872
Gm38882
Gm38883
Gm38921
Gm38955
Gm38956
Gm38959
Gm38972
Gm38983
Gm38989
Gm39039
Gm39054
Gm39058
Gm39141
Gm39150
Gm39188
Gm39193
Gm39269
Gm39291
Gm39307
Gm39397
Gm39425
Gm39439
Gm39478
Gm39488
Gm39558
Gm39567
Gm39625
Gm39667
Gm39685
Gm39827
Gm39830
Gm39852
Gm39858
Gm39859
Gm39874
Gm39885
Gm39913
Gm39961
Gm40097
Gm40121
Gm40125
Gm4013
Gm40180
Gm40225
Gm40237
Gm40303
Gm40345
Gm4035
Gm40362
Gm40441
Gm40464
Gm40481
Gm40564
Gm40637
Gm40673
Gm40706
Gm40715
Gm40770
Gm40787
Gm40798
Gm40860
Gm41055
Gm41121
Gm41173
Gm41209
Gm41244
Gm41291
Gm41297
Gm41396
Gm41410
Gm41421
Gm41425
Gm41545
Gm41640
Gm41667
Gm41754
Gm41774
Gm41818
Gm41851
Gm41949
Gm41980
Gm42004
Gm42007
Gm42029
Gm42067
Gm42085
Gm42114
Gm42141
Gm42250
Gm42306
Gm42322
Gm42369
Gm4258
Gm4275
Gm43403
Gm43653
Gm43868
Gm44148
Gm4419
Gm44505
Gm45231
Gm45607
Gm45805
Gm45871
Gm45935
Gm45952
Gm46001
Gm46004
Gm46036
Gm46043
Gm46046
Gm46056
Gm46107
Gm46152
Gm46161
Gm46162
Gm46183
Gm46195
Gm46218
Gm46226
Gm46239
Gm46272
Gm46294
Gm4633
Gm46404
Gm46405
Gm46416
Gm46554
Gm46733
Gm46762
Gm46764
Gm46766
Gm46770
Gm46771
Gm46781
Gm46815
Gm46891
Gm46901
Gm46922
Gm46942
Gm46958
Gm47918
Gm48551
Gm48745
Gm4890
Gm49085
Gm4925
Gm49870
Gm50494
Gm50595
Gm50614
Gm5113
Gm5122
Gm5129
Gm51436
Gm51460
Gm51480
Gm51532
Gm51544
Gm51568
Gm51604
Gm51622
Gm5165
Gm51663
Gm51667
Gm51673
Gm51708
Gm51752
Gm51802
Gm51892
Gm51893
Gm51953
Gm51965
Gm51999
Gm52047
Gm52054
Gm52060
Gm52067
Gm52117
Gm52200
Gm52283
Gm52310
Gm52329
Gm52331
Gm52358
Gm52399
Gm52551
Gm52554
Gm52565
Gm52628
Gm52681
Gm527
Gm52713
Gm52763
Gm52907
Gm52920
Gm53204
Gm53209
Gm53228
Gm53284
Gm53290
Gm53336
Gm53349
Gm53375
Gm53455
Gm53466
Gm53475
Gm53478
Gm53481
Gm53549
Gm53550
Gm53562
Gm53577
Gm53592
Gm53602
Gm53607
Gm53610
Gm53674
Gm53681
Gm53708
Gm53713
Gm53786
Gm53866
Gm53887
Gm53924
Gm53939
Gm53953
Gm53965
Gm53979
Gm53991
Gm53992
Gm53998
Gm54010
Gm54030
Gm54039
Gm54046
Gm54048
Gm54054
Gm54102
Gm54227
Gm54270
Gm5431
Gm54312
Gm5464
Gm5475
Gm5817
Gm6034
Gm6225
Gm6340
Gm6521
Gm6712
Gm7008
Gm7160
Gm7467
Gm9530
Gm9776
Gm9828
Gm9875
Gm9895
Gm9958
Gmcl1
Gmds
Gmfb
Gmpr2
Gmps
Gna11
Gna13
Gnai3
Gne
Gng12
Gngt2
Gnl1
Gnl3
Gnpat
Golga4
Golga5
Golga7
Golgb1
Golm2
Golph3l
Golt1b
Gon7
Gopc
Gorasp2
Gosr1
Got2
Gpaa1
Gpank1
Gpatch11
Gpatch2
Gpatch2l
Gpatch4
Gpatch8
Gpbp1
Gpbp1l1
Gpd2
Gpi1
Gpkow
Gpn1
Gpn3
Gpr108
Gpr137
Gpr155
Gpr157
Gpr180
Gpr19
Gprasp1
Gpsm2
Gpt2
Gpx1
Grap
Grap2
Grcc10
Grep1
Grhpr
Grik5
Grk4
Grk5
Grpel1
Grsf1
Gsk3b
Gskip
Gsn
Gspt1
Gss
Gstm1
Gsto1
Gsto2
Gstp-ps
Gstt2
Gtdc1
Gtf2a2
Gtf2b
Gtf2f1
Gtf2f2
Gtf2h3
Gtf3a
Gtf3c1
Gtf3c2
Gtf3c5
Gtf3c6
Gtpbp2
Gtpbp4
Gtpbp6
Gucd1
Gusb
Gxylt1
Gys1
H1f2
H2-DMb2
H2-M3
H2-Oa
H2-Q4
H2-T22
H2-T24
H2ac18
H2ac19
H2ac21
H2ac6
H2az1
H2bc18
H2bc4
H3c1
H3c13
H3f3b
H4c1
H4c11
H4c12
H4c14
H4c16
H4c6
H4c8
H6pd
Haao
Hace1
Hadha
Hadhb
Haghl
Hapstr1
Haspin
Hat1
Haus2
Haus3
Haus4
Haus5
Haus8
Hax1
Hbs1l
Hcfc1
Hcls1
Hdac1
Hdac6
Hdlbp
Heatr1
Heatr5a
Heatr5b
Heatr6
Hectd1
Hectd3
Helb
Helq
Herc1
Herc2
Herc4
Herc6
Herpud2
Hes1
Hesx1
Hexb
Hexdc
Hexim1
Hgh1
Hgs
Hhex
Hibadh
Hibch
Higd2a
Hikeshi
Hilpda
Hinfp
Hint1
Hip1r
Hipk1
Hirip3
Hivep1
Hivep2
Hjurp
Hk1os
Hmbox1
Hmg20b
Hmgcs1
Hmgn1
Hmgn3
Hmgxb3
Hnf1b
Hnrnpa0
Hnrnpa3
Hnrnpc
Hnrnpf
Hnrnph2
Hnrnph3
Hnrnpk
Hnrnpul2
Homer1
Homer3
Hook3
Hoxb4
Hps6
Hrob
Hsbp1
Hscb
Hsd17b11
Hsd17b12
Hsd17b4
Hsdl2
Hsp90aa1
Hsp90ab1
Hsp90b1
Hspa13
Hspa4
Hspa8
Hspbap1
Hspbp1
Hspd1
Hspe1
Htd2
Htra2
Htt
Hus1
Hyal3
Hycc1
Hycc2
Hyls1
Hyou1
I730030J21Rik
Iars
Iba57
Icam2
Idh1
Idh3g
Idnk
Ier3
Ifi27
Ifi35
Ifi47
Ifih1
Ifit2
Ifnar1
Ifngr1
Ifrd1
Ifrd2
Ift122
Ift140
Ift20
Ift22
Ift25
Ift27
Ift52
Ift70a1
Ift81
Ift88
Igbp1
Igfbp4
Ighmbp2
Igll1
Igsf8
Igtp
Ikbip
Ikbkg
Ikzf5
Il15ra
Il18rap
Il3ra
Il4i1
Il4i1b
Il4ra
Il6st
Il7r
Ilf3
Ilk
Ilkap
Ilrun
Ilvbl
Imp3
Imp4
Impa2
Impdh2
Inafm2
Ing1
Ing4
Ing5
Inka2
Ino80
Ino80c
Ino80d
Ino80dos
Ino80e
Inpp1
Inpp4a
Inpp5a
Inpp5f
Inppl1
Insig1
Insl6
Insr
Ints11
Ints13
Ints14
Ints2
Ints3
Ints4
Ints6l
Ints7
Ints8
Ints9
Invs
Ipo11-lrrc70
Ipo4
Ipo8
Ipo9
Ipp
Ippk
Iqcc
Iqcg
Iqch
Iqgap1
Iqgap2
Iqgap3
Irak1bp1
Irak2
Irak3
Irak4
Ireb2
Irf1
Irf2
Irf2bp1
Irf2bp2
Irf9
Irgc1
Irgm1
Irs1
Isca1
Isca2
Isg20l2
Isoc2b
Ist1
Isy1
Isyna1
Itfg2
Itga4
Itgav
Itgb1
Itgb1bp1
Itgb2
Itgb3bp
Itih5
Itm2b
Itpkc
Itpr1
Itpr2
Itpr3
Itprip
Itpripl1
Itsn1
Ivd
Ivns1abp
Iws1
Izumo4
Jagn1
Jak1
Jak3
Jkamp
Jmjd4
Jmjd6
Jmjd7
Josd2
Jpt2
Jrk
Jtb
Jun
Junb
Jund
Junos
Kansl3
Kat14
Kat6a
Kat7
Katna1
Katnal1
Katnb1
Katnbl1
Katnip
Kazald1
Kbtbd2
Kbtbd3
Kcnab3
Kcnk6
Kcnn1
Kctd12
Kctd18
Kctd20
Kctd6
Kdm1a
Kdm1b
Kdm3a
Kdm3b
Kdm4a
Kdm4d
Kdm5a
Kdm8
Khdc4
Khdrbs1
Khk
Khnyn
Khsrp
Kif13b
Kif14
Kif18a
Kif1c
Kif20a
Kif20b
Kif22
Kif23
Kif5a
Kif5b
Kif9
Kifc1
Kifc2
Kifc5b
Klc2
Klc4
Klf11
Klf16
Klf6
Klf9
Klhdc1
Klhdc10
Klhdc4
Klhl18
Klhl20
Klhl21
Klhl24
Klhl28
Klhl36
Klhl5
Klhl6
Klhl9
Kmt2a
Kmt2b
Kmt2c
Kmt2e
Kmt5a
Kmt5c
Knstrn
Kntc1
Kpna4
Kpna6
Kpnb1
Kri1
Krit1
Krr1
Kti12
Kxd1
Kyat1
Kyat3
L3hypdh
L3mbtl2
LOC102636360
LOC115486880
LOC115487153
LOC115487634
LOC115487949
LOC115488671
LOC115488769
LOC115489044
LOC118567335
LOC118567396
LOC118568483
LOC118568795
LOC122152371
LOC122526781
LTO1
Lactb2
Lair1
Lamp1
Lamtor2
Lamtor3
Lamtor4
Lamtor5
Lancl2
Lap3
Laptm5
Larp1b
Larp4b
Lars
Lars2
Las1l
Lat
Lats2
Lbh
Lclat1
Lcmt1
Lcmt2
Lcor
Lcorl
Ldlr
Ldlrap1
Leng8
Leprot
Lgals9
Lhpp
Lias
Lig3
Lig4
Limk1
Limk2
Lin37
Lin52
Lins1
Litaf
Lix1l
Llph
Lman1
Lman2
Lmbr1l
Lmbrd2
Lmnb1
Lmo4
Lncpint
Lnpep
Lnx2
Lockd
Lonp2
Loxl3
Lpar6
Lpcat1
Lpcat3
Lpxn
Lratd2
Lrch3
Lrig2
Lrpprc
Lrrc20
Lrrc32
Lrrc42
Lrrc45
Lrrc46
Lrrc51
Lrrc57
Lrrc59
Lrrc61
Lrrc70
Lrrc75a
Lrrc8a
Lrrc8c
Lrrc8d
Lrriq3
Lrrk2
Lsg1
Lsm10
Lsm14a
Lsm14b
Lsm3
Lsm5
Lsm6
Lsm8
Lsmem1
Lsr
Ltn1
Luc7l
Ly75
Ly9
Ly96
Lyl1
Lypla1
Lypla2
Lyrm1
Lyrm2
Lyrm9
Lyset
Lyst
Lzic
Lztfl1
Lztr1
M6pr
Macroh2a1
Mad1l1
Mad2l1
Mad2l1bp
Madd
Mageb3
Magi3
Magoh
Magohb
Mak16
Malat1
Malsu1
Malt1
Maml1
Man2a1
Man2b2
Man2c1
Man2c1os
Manbal
Manf
Map1lc3a
Map3k10
Map3k11
Map3k12
Map3k14
Map3k4
Map3k5
Map3k7
Map4k1
Map4k2
Map9
Mapk14
Mapk1ip1
Mapk1ip1l
Mapk6
Mapk7
Mapkapk5
Mapkbp1
Marchf6
Marf1
Mark2
Mark3
Mars1
Mars2
Mast2
Mastl
Matcap1
Max
Maz
Mbd1
Mbd4
Mbd5
Mbd6
Mblac2
Mbnl2
Mbtd1
Mbtps1
Mcat
Mcfd2
Mcm10
Mcm2
Mcm3
Mcm4
Mcm7
Mcm8
Mcm9
Mcrs1
Mcu
Mcur1
Mdc1
Mdh2
Mdp1
Me2
Meak7
Mecp2
Med1
Med11
Med13
Med14
Med15
Med18
Med21
Med22
Med23
Med26
Med27
Med31
Med4
Med7
Med8
Med9
Med9os
Mef2bl
Mef2d
Megf8
Mei4
Melk
Men1
Mepce
Mesd
Metap1
Mettl14
Mettl15
Mettl18
Mettl2
Mettl23
Mettl25
Mettl26
Mettl4
Mettl6
Mettl7a1
Mettl8
Mex3a
Mex3b
Mex3c
Mfap1a
Mfap1b
Mfge8
Mfn1
Mfng
Mfsd1
Mfsd11
Mfsd14a
Mfsd14b
Mfsd3
Mfsd5
Mfsd8
Mgat1
Mgat5
Mgme1
Mib1
Micos10
Micu1
Micu3
Midn
Mief2
Mien1
Mier1
Miip
Milr1
Mindy3
Mipep
Mipepos
Mipol1
Mir101c
Mir155
Mir155hg
Mir1893
Mir1894
Mir191
Mir1934
Mir1938
Mir1945
Mir1956
Mir1967
Mir210
Mir23a
Mir24-2
Mir27a
Mir2861
Mir3074-2
Mir3091
Mir320
Mir330
Mir3569
Mir3960
Mir423
Mir425
Mir449c
Mir484
Mir5100
Mir5130
Mir5131
Mir5133
Mir5136
Mir5627
Mir6516
Mir688
Mir7009
Mir7036b
Mir707
Mir7075
Mir7086
Mir713
Mir7238
Mir762
Mir7648
Mir7655
Mir7666
Mir7672
Mir7687
Mir8098
Mir8102
Mir8111
Mir8116
Mirt1
Mis12
Mis18a
Mis18bp1
Mitd1
Mkks
Mlf2
Mlh1
Mllt3
Mlst8
Mlycd
Mmaa
Mmab
Mmachc
Mmgt1
Mmgt2
Mms19
Mms22l
Mmut
Mnd1
Moap1
Mob1a
Mob1b
Mob2
Mob3a
Mocs1
Mocs3
Mogs
Mon1a
Mon1b
Morc3
Morf4l1
Morn5
Mospd1
Mospd2
Mospd3
Mpc2
Mpdu1
Mpg
Mphosph6
Mphosph8
Mphosph9
Mplkip
Mpp7
Mprip
Mpst
Mpv17l
Mre11a
Mrfap1
Mri1
Mrm2
Mrm3
Mroh1
Mroh8
Mrpl10
Mrpl11
Mrpl12
Mrpl17
Mrpl2
Mrpl21
Mrpl27
Mrpl30
Mrpl38
Mrpl39
Mrpl41
Mrpl44
Mrpl45
Mrpl48
Mrpl51
Mrpl52
Mrpl54
Mrpl57
Mrps12
Mrps14
Mrps16
Mrps17
Mrps18b
Mrps18c
Mrps21
Mrps26
Mrps27
Mrps33
Mrps36
Mrps5
Mrps6
Msantd4
Msh6
Msl2
Msn
Msrb1
Msto1
Mtch1
Mtch2
Mtdh
Mterf3
Mterf4
Mtf1
Mtf2
Mtfr1l
Mtfr2
Mtg2
Mthfd1
Mthfd2
Mthfsd
Mtif2
Mtln
Mtmr14
Mtmr2
Mtmr4
Mtmr6
Mtpap
Mtpn
Mtr
Mtres1
Mtrex
Mtrf1l
Mtrfr
Mtrr
Mttp
Mutyh
Mvk
Mxd1
Mxd4
Mybbp1a
Mybl1
Mybl2
Mycbp2
Myd88
Myl12a
Myl6
Myl6b
Mylip
Mylpf
Myo19
Myo1g
Myo9a
Myo9b
Mysm1
Mzb1
Mzt2
N4bp2l1
N4bp2l2
Naa16
Naa30
Naa35
Naa38
Naa50
Naa80
Nabp1
Nabp2
Nadk
Nadk2
Nadsyn1
Nae1
Naf1
Nagk
Nampt
Nap1l1
Napa
Napepld
Napg
Napsa
Narf
Nars
Nars2
Nat2
Nat8f1
Nat9
Natd1
Naxd
Naxe
Nbr1
Ncapd2
Ncapd3
Ncapg
Ncapg2
Ncaph
Ncbp1
Ncdn
Nceh1
Ncf4
Nckap5l
Nckipsd
Ncoa3
Ncoa5
Ncor1
Ncstn
Ndc1
Ndc80
Ndel1
Ndfip2
Ndst2
Ndufa10
Ndufa12
Ndufa13
Ndufa4
Ndufa7
Ndufa8
Ndufa9
Ndufab1
Ndufaf1
Ndufaf3
Ndufaf5
Ndufaf6
Ndufaf7
Ndufb10
Ndufb3
Ndufb7
Ndufb9
Ndufs1
Ndufs4
Ndufs5
Ndufs7
Ndufs8
Ndufv1
Neat1
Nedd8
Nedd9
Neil1
Neil3
Nek1
Nek11
Nek3
Nek4
Nelfa
Nelfe
Nemp2
Neu1
Neurl2
Nf2
Nfat5
Nfatc2ip
Nfe2
Nfe2l2
Nfkbib
Nfkbid
Nfs1
Nfu1
Nfxl1
Nfya
Nfyb
Ngdn
Ngrn
Nherf1
Nhp2
Niban3
Nif3l1
Ninj1
Nip7
Nipa2
Nipsnap2
Nkapd1
Nkiras1
Nlrc5
Nlrp1a
Nme1
Nme6
Nmi
Nmnat1
Nmt2
Nnt
Noc3l
Noc4l
Noct
Nod1
Nol11
Nol12
Nol6
Nol7
Nol8
Nomo1
Nop14
Nop16
Nop58
Nop9
Nopchap1
Nosip
Notch1
Notch2
Npat
Npc2
Npcd
Npff
Nphp3
Nprl2
Nprl3
Nptn
Nr1d2
Nr1h3
Nr2c2
Nr6a1
Nras
Nrbp1
Nrd1
Nrde2
Nrm
Nrp
Nrros
Nsa2
Nsd3
Nsdhl
Nsfl1c
Nsl1
Nsmce1
Nsmce2
Nsrp1
Nsun4
Nsun5
Nt5c
Nt5dc3
Ntan1
Ntaq1
Nub1
Nubp1
Nucb1
Nucb2
Nucks1
Nudc
Nudcd1
Nudcd3
Nudt1
Nudt13
Nudt18
Nudt5
Nudt7
Nudt8
Nudt9
Nuf2
Nufip2
Nuggc
Numa1
Numb
Nup107
Nup214
Nup54
Nup58
Nup62
Nup88
Nup93
Nup98
Nus1
Nutf2
Nxt1
Nyap1
Nyx
Oard1
Oas1c
Oasl1
Oat
Oaz2
Ocel1
Ociad1
Odad1
Odad3
Odad4
Odr4
Oga
Ogfod3
Ogfrl1
Ogg1
Oip5os1
Oma1
Opa1
Opa3
Oplah
Optn
Or10aa1
Or4e2
Orai1
Orai3
Orc1
Orc2
Orc5
Ormdl1
Ormdl3
Osbp
Osbpl11
Osbpl1a
Osbpl7
Osgep
Osgepl1
Osm
Ost4
Ostm1
Otub1
Otud3
Otud6b
Otud7b
Oxa1l
Oxnad1
P2rx3
P2rx4
P3h1
P4ha1
P4hb
Pa2g4
Pabir1
Pabir2
Pabpc1
Pabpn1
Pacrgl
Padi2
Paf1
Pafah1b1
Pafah1b2
Pafah2
Pagr1a
Paics
Paip2
Paip2b
Pak1ip1
Palb2
Pals1
Pank4
Panx1
Papolg
Papss1
Parl
Parp1
Parp11
Parp16
Parp2
Parp3
Parp4
Parp9
Pars2
Patl1
Pax5
Paxbp1
Pbk
Pbrm1
Pcbp2
Pccb
Pcdhgc3
Pcgf2
Pcid2
Pcif1
Pck2
Pcm1
Pcna
Pcnx3
Pcsk4
Pcyt1a
Pdap1
Pdcd10
Pdcd2
Pdcd6
Pdcd7
Pdcl
Pdcl3
Pde12
Pde6d
Pde8a
Pdhx
Pdia3
Pdia4
Pdlim5
Pdp1
Pdp2
Pds5a
Pds5b
Pdss1
Pdxdc1
Pdxk
Pdzd8
Pef1
Pemt
Per2
Pes1
Pet117
Pex1
Pex11b
Pex13
Pex16
Pex3
Pex5
Pex6
Pex7
Pfas
Pfdn5
Pfdn6
Pfkfb1
Pfkfb3
Pfkm
Pgam1
Pgam5
Pgap2
Pgghg
Pggt1b
Pgk1
Pgls
Pgm1
Pgm2l1
Pgpep1
Pgrmc1
Pgs1
Phactr4
Phb
Phc1
Phf13
Phf14
Phf21b
Phf23
Phf3
Phf7
Phka2
Phlda1
Phlpp1
Phrf1
Phtf1
Phtf1os
Phtf2
Phykpl
Pi4k2a
Pi4k2b
Pi4kb
Pias2
Pias3
Picalm
Pick1
Pidd1
Pierce2
Pif1
Pigb
Pigbos1
Pigc
Pigf
Pigg
Pigl
Pigm
Pign
Pigo
Pigt
Pigw
Pigx
Pih1d2
Pik3ap1
Pik3ca
Pik3cd
Pik3cg
Pik3r1
Pik3r2
Pik3r3
Pik3r4
Pikfyve
Pim2
Pimreg
Pin1
Pinlyp
Pip4k2b
Pip4p1
Pip4p2
Pithd1
Pitpnb
Pitpnc1
Pitpnm1
Pja2
Pkd1
Pkd1l3
Pkd2l2
Pkm
Pkmyt1
Pkn2
Pkn3
Pla2g15
Pla2g6
Plcb2
Plcg2
Plekha4
Plekhf2
Plekhg2
Plekhh3
Plekhm1
Plgrkt
Plk1
Plk3
Plk4
Plscr1
Plxdc1
Plxnd1
Pmm1
Pmm2
Pmpcb
Pms1
Pms2
Pnkd
Pnkp
Pnn
Pno1
Pnp
Pnpla2
Pnpla7
Pnpla8
Pnpt1
Pnrc1
Pnrc2
Poc5
Pofut2
Pola1
Pola2
Pold2
Pold4
Pole2
Pole3
Pole4
Polh
Polk
Poll
Polm
Poln
Polr1b
Polr1c
Polr1d
Polr1h
Polr1has
Polr2a
Polr2d
Polr2e
Polr2g
Polr2h
Polr2i
Polr2j
Polr2k
Polr2m
Polr3a
Polr3b
Polr3d
Polr3e
Polr3g
Polr3gl
Polr3k
Pomp
Pomt1
Pon2
Pon3
Pop4
Pop7
Pot1a
Pot1b
Potefam3e
Pou2af1
Pou2f1
Pou6f1
Ppan
Ppard
Ppargc1b
Ppat
Ppcs
Pphln1
Ppig
Ppih
Ppil1
Ppil3
Ppil6
Ppip5k2
Ppm1d
Ppm1f
Ppm1k
Ppm1l
Ppme1
Ppox
Ppp1ca
Ppp1cb
Ppp1cc
Ppp1r10
Ppp1r11
Ppp1r12a
Ppp1r12b
Ppp1r15a
Ppp1r15b
Ppp1r16a
Ppp1r16b
Ppp1r18
Ppp1r21
Ppp1r35
Ppp1r3b
Ppp1r8
Ppp2ca
Ppp2cb
Ppp2r1a
Ppp2r1b
Ppp2r2d
Ppp2r3c
Ppp2r3d
Ppp2r5a
Ppp2r5b
Ppp2r5d
Ppp3ca
Ppp3cb
Ppp3r1
Ppp6c
Ppp6r1
Ppp6r2
Ppp6r3
Pprc1
Pradc1
Prc1
Prcc
Prcp
Prdm15
Prdm4
Prdm9
Prdx1
Prdx6
Prelid1
Prelid2
Prelid3a
Prep
Prepl
Prim2
Prkab1
Prkacb
Prkag1
Prkar1b
Prkch
Prkci
Prkcsh
Prkd2
Prkdc
Prkra
Prkrip1
Prkx
Prmt1
Prmt5
Prmt7
Prmt9
Prodh
Prorp
Prorsd1
Prpf19
Prpf3
Prpf31
Prpf38a
Prpf38b
Prpf40a
Prpf4b
Prps1l3
Prr13
Prr14
Prr14l
Prr3
Prrc2a
Prrc2c
Prrg2
Psd
Psenen
Pskh1
Psma1
Psma3
Psma4
Psmb1
Psmb3
Psmb6
Psmb7
Psmb9
Psmc1
Psmc3ip
Psmc4
Psmd10
Psmd14
Psmd2
Psmd3
Psmd4
Psmd5
Psmd6
Psmd8
Psmd9
Psme1
Psme2
Psme3ip1
Psmg1
Psmg2
Psmg4
Psph
Psrc1
Ptbp3
Ptcd1
Ptcd2
Ptdss1
Ptdss2
Pten
Ptges2
Ptges3
Ptges3l
Ptgr2
Ptp4a1
Ptp4a2
Ptpa
Ptpn23
Ptpn4
Ptpn7
Ptpn9
Ptrh2
Ptrhd1
Pts
Pum2
Pum3
Purg
Pus1
Pus7l
Pwp1
Pwwp3a
Pxn
Pycr2
Pygb
Pygo2
Qars
Qpctl
R3hdm1
R3hdm2
Rab10
Rab10os
Rab11b
Rab11fip3
Rab12
Rab13
Rab14
Rab18
Rab1a
Rab21
Rab24
Rab26os
Rab2b
Rab33b
Rab35
Rab36
Rab39
Rab3ip
Rab40c
Rab4b
Rab5a
Rab5if
Rab6a
Rab8a
Rab9
Rabep2
Rabepk
Rabgap1
Rabggtb
Rabif
Rabl6
Rac1
Rac2
Rack1
Rad17
Rad18
Rad23b
Rad51
Rad51ap1
Rad51b
Rad51c
Rad51d
Rad52
Rad54l
Rad9b
Raf1
Ralb
Ralbp1
Ralgapa2
Raly
Ramac
Ramacl
Ran
Ranbp1
Ranbp2
Ranbp3
Rangap1
Rap1a
Rap1gds1
Rap2b
Rapgef1
Rapgef2
Rapgef3
Rars
Rasa1
Rasa2
Rasal1
Rasal2
Rasal3
Rasgrp2
Rassf2
Rassf3
Rassf4
Raver1
Rb1
Rbak
Rbbp4
Rbbp5
Rbck1
Rbis
Rbks
Rbl1
Rbl2
Rbm14
Rbm15b
Rbm17
Rbm19
Rbm22
Rbm25
Rbm27
Rbm28
Rbm3
Rbm33
Rbm34
Rbm39
Rbm3os
Rbm42
Rbm43
Rbm45
Rbm48
Rbm4b
Rbm6
Rbm8a
Rbms3
Rbsn
Rbx1
Rc3h2
Rcan3
Rcc1
Rcc2
Rccd1
Rce1
Rchy1
Rcor3
Rdh14
Rdm1
Recql
Reep2
Reep6
Rel
Relb
Relch
Rell1
Renbp
Repin1
Reps1
Rer1
Rere
Resf1
Retreg2
Retreg3
Retsat
Rev3l
Rexo4
Rexo5
Rfc3
Rfesd
Rfwd3
Rfx2
Rfx5
Rfxank
Rfxap
Rgcc
Rgp1
Rgs14
Rgs18
Rhbdd1
Rhbdd3
Rheb
Rhebl1
Rhoa
Rhof
Rhog
Rhot1
Rhot2
Ribc1
Ric8a
Ric8b
Rimbp3
Rimoc1
Rinl
Riok1
Riox1
Ripk2
Rlbp1
Rlf
Rmc1
Rmdn1
Rmi1
Rmnd1
Rmnd5a
Rmrp
Rn7s1
Rn7sk
Rnase4
Rnaseh1
Rnaseh2b
Rnasel
Rnf10
Rnf103
Rnf111
Rnf122
Rnf141
Rnf157
Rnf167
Rnf168
Rnf170
Rnf185
Rnf19a
Rnf2
Rnf20
Rnf216
Rnf31
Rnf41
Rnf43
Rnf44
Rnf7
Rnf8
Rnft1
Rnmt
Rnpc3
Rnps1
Rnu11
Rnu1a1
Rnu2-10
Rnu5g
Rnu7
Ro60
Rock1
Rock2
Romo1
Rpa2
Rpa3
Rpain
Rpgrip1
Rpia
Rpl10
Rpl10a
Rpl11
Rpl13
Rpl13a
Rpl14
Rpl15
Rpl23
Rpl23a
Rpl24
Rpl26
Rpl29
Rpl31
Rpl35a
Rpl37
Rpl41
Rpl7a
Rpl7l1
Rpl9
Rplp2
Rpn2
Rpp14
Rpph1
Rprd1a
Rprd1b
Rps11
Rps16
Rps18
Rps19
Rps19bp1
Rps20
Rps21
Rps26
Rps27
Rps28
Rps29
Rps3
Rps3a1
Rps5
Rps6ka3
Rps6kb2
Rps7
Rpusd2
Rraga
Rras2
Rrm1
Rrm2b
Rrn3
Rrnad1
Rrp12
Rrp15
Rrp7a
Rrp8
Rrp9
Rsbn1
Rsf1
Rsf1os2
Rsl1
Rsph3a
Rsph3b
Rspry1
Rsrc2
Rsrp1
Rsu1
Rtca
Rtf1
Rtf2
Rtn3
Rtn4
Rubcn
Rufy4
Rundc1
Runx3
Ruvbl2
Rwdd1
Rwdd4a
Rxylt1
S100pbp
S1pr2
Sacm1l
Safb
Safb2
Sagsin1
Samd15
Samd9l
Samm50
Samsn1
Sap130
Sap30l
Sars2
Sart1
Sass6
Sat1
Saxo2
Saysd1
Sbno1
Scaf11
Scaf4
Scaf8
Scai
Scamp3
Scamp4
Scand1
Scaper
Scarb2
Scarna13
Scarna17
Scarna2
Scd1
Scd2
Scfd1
Scfd2
Scimp
Scn4a
Sco1
Scrib
Scrn3
Scyl3
Sdad1
Sdc4
Sdccag8
Sde2
Sdf2
Sdf2l1
Sdf4
Sdha
Sdhb
Sdhd
Sec13
Sec14l1
Sec16a
Sec22a
Sec22b
Sec23ip
Sec31a
Sec61b
Sec61g
Sec63
Secisbp2
Selenom
Selenop
Selenos
Selenot
Selplg
Sem1
Senp1
Senp2
Senp8
Sepsecs
Septin2
Septin7
Serbp1
Serf2
Sergef
Serhl
Serinc5
Serp1
Serpinb6a
Serpini1
Sertad1
Sertad2
Sertad3
Sesn1
Sesn3
Setd1a
Setd1b
Setd2
Setd3
Setd4
Setdb1
Setdb2
Sf1
Sf3a1
Sf3a3
Sf3b1
Sf3b2
Sf3b3
Sf3b6
Sfr1
Sft2d2
Sfxn2
Sfxn3
Sfxn4
Sgf29
Sgo1
Sgsm2
Sgta
Sh2d3c
Sh3bgrl3
Sh3bp2
Sh3gl1
Sh3rf1
Shcbp1
Shld1
Shld2
Shld3
Shmt1
Shoc2
Shprh
Shq1
Siae
Siah2
Sik3
Sinhcaf
Sipa1l1
Sipa1l3
Sirt2
Sirt4
Sirt5
Sirt6
Ska1
Ska3
Skap2
Skic2
Skic8
Sla2
Slbp
Slc11a2
Slc12a2
Slc12a6
Slc14a1
Slc16a1
Slc17a4
Slc17a5
Slc19a2
Slc1a4
Slc1a5
Slc22a5
Slc25a1
Slc25a11
Slc25a14
Slc25a15
Slc25a20
Slc25a26
Slc25a28
Slc25a30
Slc25a32
Slc25a33
Slc25a35
Slc25a38
Slc25a39
Slc25a46
Slc25a5
Slc26a6
Slc26a8
Slc29a3
Slc2a4
Slc2a8
Slc31a1
Slc33a1
Slc35a1
Slc35a2
Slc35a5
Slc35c1
Slc35c2
Slc35e3
Slc35e4
Slc36a1
Slc38a10
Slc39a1
Slc39a13
Slc44a1
Slc45a4
Slc49a4
Slc4a11
Slc4a2
Slc5a3
Slc66a3
Slc7a5
Slc7a6os
Slc8b1
Slc9a5
Slco4a1
Slf1
Slfn3
Slirp
Sltm
Slx1b
Slx4
Slx4ip
Smad4
Smap1
Smap2
Smarca4
Smarca5
Smarcd2
Smc1a
Smc2
Smc2os
Smc3
Smc5
Smc6
Smchd1
Smcr8
Smg8
Smg9
Smim10l1
Smim11
Smim12
Smim13
Smim15
Smim20
Smim26
Smim27
Smim30
Smim7
Smim8
Smpd2
Smtnl1
Smyd3
Snai1
Snap23
Snap47
Snapc1
Snapin
Snd1
Snf8
Snhg10
Snhg12
Snhg15
Snhg16
Snhg20
Snhg6
Snhg7
Snhg8
Snora16a
Snora17
Snora21
Snora24
Snora57
Snora9
Snord118
Snord13
Snord15a
Snord1c
Snord3a
Snord3b1
Snord3b2
Snord3b3
Snord3b4
Snord42b
Snord45c
Snord49a
Snord49b
Snord58b
Snord60
Snord68
Snrnp27
Snrnp35
Snrnp40
Snrnp48
Snrpa
Snrpa1
Snrpb2
Snrpc
Snrpd2
Snrpd3
Snrpe
Sntb2
Snw1
Snx11
Snx14
Snx17
Snx2
Snx20
Snx21
Snx25
Snx27
Snx3
Snx32
Snx5
Socs1
Socs2
Socs4
Socs5
Sod1
Sod2
Son
Sord
Sox15
Sp1
Sp3
Sp3os
Sp4
Spa17
Spacdr
Spag7
Spag9
Spart
Spata17
Spata5l1
Spata6
Spdl1
Spdya
Spdye4b
Spef2
Spen
Spg11
Spi1
Spink10
Spop
Spopl
Spout1
Spp1
Spred1
Spred2
Spsb1
Sptan1
Sptlc1
Sptlc2
Spty2d1
Srcap
Srebf2
Srek1
Srek1ip1
Srfbp1
Srgap2
Srl
Srp14
Srp19
Srp54a
Srp68
Srpk1
Srpr
Srprb
Srrm1
Srrt
Srsf10
Srsf2
Srsf4
Srsf5
Srsf7
Ssbp1
Ssbp2
Ssbp3
Ssmem1
Ssr3
Ssr4
Ssrp1
St13
St3gal1
Stag2
Stam2
Stard3
Stard5
Stard6
Stat1
Stat2
Stat5a
Stat6
Steep1
Stil
Stip1
Stk11ip
Stk19
Stk3
Stk35
Stk35os1
Stk38l
Stoml1
Stoml2
Strada
Stradb
Strip1
Strip2
Strn
Stt3b
Stx12
Stx4a
Stx7
Stx8
Stxbp2
Stxbp3
Stxbp4
Styk1
Styx
Styxl1
Sucla2
Suco
Suds3
Sufu
Sugct
Sugp2
Sugt1
Sumo1
Sumo2
Sumo3
Supt4a
Supt6
Surf6
Suz12
Svbp
Swap70
Swt1
Syf2
Syne3
Syngr4
Sypl
Szrd1
Szt2
Tab1
Tab3
Taco1
Taco1os
Tada1
Tada3
Taf10
Taf11
Taf13
Taf1a
Taf1c
Taf5
Taf5l
Taf9
Tafazzin
Tagap
Tamm41
Taok3
Tap1
Tapbp
Tars
Tarsl2
Tasor
Tasor2
Tatdn1
Tatdn3
Tax1bp3
Tbc1d10b
Tbc1d10c
Tbc1d13
Tbc1d15
Tbc1d17
Tbc1d19
Tbc1d2
Tbc1d23
Tbc1d8b
Tbca
Tbcb
Tbcd
Tbck
Tbl1xr1
Tbl3
Tbpl1
Tbrg1
Tbrg4
Tcaim
Tcam1
Tcea1
Tceanc2
Tcerg1
Tcf12
Tcf19
Tcf4
Tchp
Tcp1
Tcta
Tdg
Tec
Tedc1
Tedc2
Telo2
Ten1
Terf1
Terf2
Tesk1
Tesk2
Tesmin
Tespa1
Tex10
Tex14
Tex2
Tex22
Tex261
Tex30
Tfb1m
Tfcp2
Tfe3
Tfeb
Tfpt
Tgfbrap1
Tgif2
Tgoln1
Tgs1
Thap1
Thap7
Thbd
Them4
Them6
Thg1l
Thnsl1
Thoc1
Thoc2
Thoc3
Thoc5
Thrap3
Thtpa
Thumpd2
Thumpd3
Tia1
Tial1
Ticam1
Tifab
Tigd2
Tigd5
Timm10
Timm13
Timm17a
Timm29
Timm44
Timm50
Timm8b
Timm9
Timmdc1
Tinf2
Tiparp
Tjap1
Tkfc
Tlcd3a
Tln1
Tlnrd1
Tlr4
Tlr9
Tm2d2
Tmbim6
Tmc8
Tmco1
Tmco6
Tmed1
Tmed3
Tmed4
Tmed5
Tmed8
Tmem104
Tmem106c
Tmem109
Tmem11
Tmem115
Tmem119
Tmem123
Tmem126a
Tmem128
Tmem131l
Tmem143
Tmem14c
Tmem161a
Tmem161b
Tmem167
Tmem167b
Tmem168
Tmem170b
Tmem175
Tmem179b
Tmem18
Tmem184c
Tmem185b
Tmem186
Tmem19
Tmem191
Tmem192
Tmem198b
Tmem205
Tmem208
Tmem209
Tmem214
Tmem222
Tmem234
Tmem240
Tmem241
Tmem242
Tmem250-ps
Tmem262
Tmem267
Tmem276
Tmem276-zftraf1
Tmem30a
Tmem33
Tmem38a
Tmem41b
Tmem59
Tmem60
Tmem63a
Tmem63b
Tmem64
Tmem65
Tmem68
Tmem69
Tmem71
Tmem80
Tmem87a
Tmem87b
Tmem94
Tmf1
Tmpo
Tmppe
Tmtc3
Tmtc4
Tmub2
Tmx1
Tmx3
Tnfaip1
Tnfaip3
Tnfaip8
Tnfaip8l1
Tnfrsf12a
Tnfrsf1b
Tnfrsf21
Tnip2
Tnks
Tnks1bp1
Tnks2
Tnni2
Tnpo2
Tnpo3
Tnrc6c
Tns1
Tob1
Toe1
Togaram1
Tollip
Tom1
Tomm20
Tomm22
Tomm34
Tomm40
Tomm5
Tomm7
Tonsl
Top2a
Top2b
Top3a
Top3b
Topors
Tor1aip1
Tor1aip2
Tor1b
Tor2a
Tor3a
Tor4a
Tox4
Tpcn2
Tpgs2
Tpmt
Tpp2
Tppp
Tpr
Tra2b
Trabd
Traf3ip2
Traf3ip3
Traf6
Traf7
Traip
Trak2
Tram1
Tram2
Trappc11
Trappc13
Trappc14
Trappc2l
Trappc3
Trappc5
Trappc9
Trdmt1
Treml2
Trex1
Triap1
Trim12c
Trim16
Trim21
Trim23
Trim24
Trim25
Trim26
Trim28
Trim3
Trim30a
Trim34a
Trim35
Trim37
Trim41
Trim44
Trim45
Trim56
Trim65
Trim68
Trip12
Trip4
Trit1
Trmt10a
Trmt11
Trmt1l
Trmt2a
Trmt44
Trmt6
Trnau1ap
Troap
Trp53
Trp53bp2
Trp53inp1
Trp53inp2
Trpc4ap
Trpm7
Trrap
Tsen54
Tsfm
Tsga10
Tsks
Tsku
Tsn
Tsnax
Tspyl4
Tsr1
Tssk6
Tst
Tstd2
Ttbk2
Ttc1
Ttc13
Ttc14
Ttc17
Ttc19
Ttc32
Ttc39b
Ttc4
Ttc41
Ttc5
Ttc7
Ttc9c
Ttf1
Ttf2
Tti1
Tti2
Ttll11
Ttll12
Ttll13
Ttll4
Ttpal
Tuba1a
Tuba1b
Tuba1c
Tubb4b
Tubg1
Tubg2
Tubgcp3
Tubgcp4
Tubgcp5
Tufm
Tulp3
Tusc3
Tut1
Tut7
Twsg1
Txlna
Txlng
Txn1
Txn2
Txndc12
Txndc17
Txnip
Txnl4b
Txnrd3
Tyrobp
Tysnd1
U2af1l4
U2surp
Uap1l1
Uba1
Uba2
Uba3
Uba6
Uba7
Ubac2
Ubald1
Ubap1
Ubap2
Ubap2l
Ubb
Ube2a
Ube2d1
Ube2d3
Ube2e1
Ube2f
Ube2l3
Ube2l6
Ube2n
Ube2q1
Ube2s
Ube2t
Ube2w
Ube2z
Ube4a
Ubfd1
Ubl3
Ublcp1
Ubn2
Ubp1
Ubqln4
Ubr1
Ubr2
Ubr7
Ubtd1
Ubxn1
Ubxn2a
Ubxn2b
Ubxn4
Ubxn7
Uchl3
Uchl5
Uckl1
Ucp2
Ufc1
Ufd1
Ufl1
Ufm1
Ufsp1
Ugdh
Uggt1
Ugp2
Ulbp1
Ulk3
Umad1
Unc45a
Unc50
Unc93b1
Unk
Upf1
Upf2
Upf3b
Uqcc1
Uqcc2
Uqcc3
Uqcc6
Uqcr10
Uqcr11
Uqcrb
Uqcrc1
Uqcrfs1
Urb2
Urm1
Urod
Uros
Usb1
Usf1
Usf3
Uso1
Usp1
Usp15
Usp16
Usp18
Usp20
Usp22
Usp28
Usp30
Usp32
Usp38
Usp39
Usp6nl
Usp8
Uspl1
Utp15
Utp18
Utp23
Utp3
Utp6
Uxs1
Uxt
Vamp1
Vamp4
Vamp8
Vars
Vasp
Vat1
Vaultrc5
Vav2
Vbp1
Vcl
Vcpip1
Vdac1
Vdac2
Vegfa
Vhl
Vim
Vipas39
Virma
Vmn2r29
Vmo1
Vmp1
Vpreb1b
Vps13a
Vps13b
Vps18
Vps26a
Vps26b
Vps26c
Vps29
Vps33b
Vps35l
Vps39
Vps4b
Vps51
Vps52
Vps53
Vps8
Vrk1
Vrk2
Vrk3
Vta1
Vti1a
Wars2
Washc1
Washc3
Washc4
Washc5
Wasl
Wbp1l
Wbp2
Wbp4
Wdcp
Wdfy1
Wdfy2
Wdhd1
Wdr11
Wdr12
Wdr19
Wdr27
Wdr3
Wdr33
Wdr36
Wdr37
Wdr38
Wdr41
Wdr43
Wdr44
Wdr45b
Wdr46
Wdr47
Wdr53
Wdr5b
Wdr62
Wdr7
Wdr70
Wdr75
Wdr76
Wdr77
Wdr89
Whamm
Wipf2
Wrap53
Wrn
Wrnip1
Wtap
Wwc2
Wwox
Wwp1
Xkr5
Xndc1
Xntrpc
Xpc
Xpnpep1
Xpnpep3
Xpo1
Xpo5
Xpo7
Xpot
Xpr1
Xrcc1
Xrcc4
Xrcc5
Xrra1
Xxylt1
Xylb
Yars
Yif1a
Yif1b
Yipf2
Yipf3
Yipf4
Yipf5
Yju2
Ykt6
Yme1l1
Ythdc1
Ythdf3
Ywhab
Ywhaq
Yy1
Zbtb10
Zbtb11os1
Zbtb12
Zbtb17
Zbtb18
Zbtb20
Zbtb21
Zbtb24
Zbtb26
Zbtb3
Zbtb37
Zbtb40
Zbtb43
Zbtb44
Zbtb5
Zbtb6
Zbtb8os
Zbtb9
Zc2hc1a
Zc3h10
Zc3h12b
Zc3h15
Zc3h18
Zc3h3
Zc3h4
Zc3h6
Zc3h7a
Zc3h8
Zcchc10
Zcchc17
Zcchc2
Zcchc7
Zcchc8
Zcrb1
Zcwpw1
Zcwpw2
Zdhhc12
Zdhhc13
Zdhhc14
Zdhhc3
Zdhhc5
Zdhhc6
Zdhhc7
Zfand2a
Zfand2b
Zfand3
Zfand5
Zfat
Zfp101
Zfp113
Zfp12
Zfp120
Zfp13
Zfp131
Zfp141
Zfp142
Zfp143
Zfp146
Zfp148
Zfp160
Zfp180
Zfp184
Zfp202
Zfp212
Zfp213
Zfp236
Zfp26
Zfp263
Zfp267
Zfp268
Zfp28
Zfp280b
Zfp281
Zfp296
Zfp317
Zfp318
Zfp319
Zfp322a
Zfp326
Zfp329
Zfp330
Zfp346
Zfp35
Zfp36l1
Zfp382
Zfp384
Zfp386
Zfp40
Zfp408
Zfp410
Zfp414
Zfp420
Zfp429
Zfp438
Zfp444
Zfp446
Zfp455
Zfp458
Zfp472
Zfp473
Zfp507
Zfp51
Zfp52
Zfp523
Zfp524
Zfp53
Zfp54
Zfp560
Zfp568
Zfp58
Zfp580
Zfp597
Zfp599
Zfp605
Zfp607a
Zfp607b
Zfp609
Zfp617
Zfp62
Zfp622
Zfp623
Zfp626
Zfp628
Zfp637
Zfp646
Zfp647
Zfp652os
Zfp655
Zfp658
Zfp661
Zfp668
Zfp687
Zfp69
Zfp7
Zfp703
Zfp706
Zfp707
Zfp712
Zfp715
Zfp719
Zfp72
Zfp729a
Zfp729b
Zfp740
Zfp758
Zfp760
Zfp763
Zfp780b
Zfp784
Zfp788
Zfp809
Zfp81
Zfp810
Zfp830
Zfp84
Zfp846
Zfp850
Zfp865
Zfp868
Zfp869
Zfp87
Zfp870
Zfp873
Zfp874a
Zfp91
Zfp930
Zfp933
Zfp935
Zfp94
Zfp942
Zfp943
Zfp944
Zfp945
Zfp946
Zfp947
Zfp950
Zfp953
Zfp958
Zfp994
Zfp995
Zfpl1
Zfyve1
Zfyve16
Zfyve26
Zgpat
Zhx1
Zhx3
Zkscan14
Zkscan4
Zkscan5
Zkscan6
Zkscan8
Zmat1
Zmat5
Zmiz1
Zmpste24
Zmym1
Zmym4
Zmym6
Zmynd10
Zmynd12
Znhit6
Znrf1
Znrf2
Zpr1
Zranb1
Zranb3
Zrsr2
Zscan20
Zscan21
Zscan22
Zscan25
Zscan26
Zscan29
Zswim1
Zswim3
Zswim4
Zswim6
Zswim7
Zswim9
Zzz3
n-R5s185
n-TAagc13
n-TAagc14
n-TAagc15
n-TAcgc8
n-TCgca54
n-TCgca55
n-TCgca57
n-TDgtc16
n-TDgtc5
n-TEctc10
n-TEctc11
n-TEctc13
n-TEctc6
n-TEttc4
n-TEttc6
n-TEttc7
n-TFgaa3
n-TFgaa4
n-TFgaa5
n-TGccc4
n-TGccc7
n-TGgcc2
n-TGgcc4
n-TGgcc7
n-TGgcc8
n-TGtcc3
n-TGtcc7
n-THgtg8
n-TIaat16
n-TIaat17
n-TIaat6
n-TKctt16
n-TKctt17
n-TKctt27
n-TLaag4
n-TLaag8
n-TLcaa1
n-TLcaa3
n-TLcag10
n-TLcag4
n-TLcag5
n-TLcag9
n-TLtaa3
n-TLtaa4
n-TLtag1
n-TLtag3
n-TMcat16
n-TMcat7
n-TMcat8
n-TMcat9
n-TNgtt14
n-TNgtt7
n-TNgtt8
n-TNgtt9
n-TPagg2
n-TPagg7
n-TPcgg2
n-TPtgg5
n-TPtgg8
n-TQctg6
n-TQttg6
n-TRacg2
n-TRacg3
n-TRacg5
n-TRacg6
n-TRccg1
n-TRcct1
n-TRcct3
n-TRcct5
n-TRtcg4
n-TRtcg5
n-TRtct1
n-TRtct4
n-TSaga9
n-TScga3
n-TSgct5
n-TStga3
n-TTagt5
n-TTagt9
n-TTcgt5
n-TVcac6
n-TVcac7
n-TVcac9
n-TVtac1
n-TVtac2
n-TWcca2
n-TYgta1
n-TYgta2
n-TYgta7
n-TYgta9
