	GOterm	Description	ES	NES	Padj
1	GO:0002377	immunoglobulin production	0.747219084634105	2.61979878880771	1.36818027148781e-17
2	GO:0022613	ribonucleoprotein complex biogenesis	-0.517949904244487	-2.28300624154684	6.79717083045291e-16
3	GO:0042254	ribosome biogenesis	-0.566951074545601	-2.43098464657871	6.79717083045291e-16
4	GO:0034660	ncRNA metabolic process	-0.485225468275626	-2.15965822033494	9.04499727390234e-14
5	GO:0006364	rRNA processing	-0.586812212648658	-2.41610823522336	9.5217600203428e-14
6	GO:0034470	ncRNA processing	-0.510556268070224	-2.22969990334914	9.5217600203428e-14
7	GO:0016072	rRNA metabolic process	-0.568559735343081	-2.36317785442691	1.78785871867013e-12
8	GO:0002440	production of molecular mediator of immune response	0.610710781855636	2.2576353006529	1.01013483887996e-10
9	GO:0045087	innate immune response	0.440757690899197	1.74186133172959	4.53556347832437e-05
10	GO:0006399	tRNA metabolic process	-0.495257853278343	-1.98241841722881	5.44140440567506e-05
11	GO:0099024	plasma membrane invagination	0.687805340589346	2.1716806953343	6.33150458328637e-05
12	GO:0050853	B cell receptor signaling pathway	0.700957767742558	2.18592533530967	8.14638671568846e-05
13	GO:0010324	membrane invagination	0.663151817651892	2.13499484491139	0.000173162210310914
14	GO:0006911	phagocytosis, engulfment	0.702748960294032	2.17432058148886	0.00019373272452057
15	GO:0002757	immune response-activating signal transduction	0.527736420575221	1.87190156505247	0.000863092121714113
16	GO:0002253	activation of immune response	0.487656105244528	1.79522865865247	0.00122806796987622
17	GO:0002429	immune response-activating cell surface receptor signaling pathway	0.530119222872954	1.88067039473376	0.00133445039738463
18	GO:0050864	regulation of B cell activation	0.549615816082906	1.898340031334	0.00141476586867721
19	GO:0050871	positive regulation of B cell activation	0.613018788759116	1.99514697479874	0.00141476586867721
20	GO:0050778	positive regulation of immune response	0.424156274952664	1.64022857080518	0.00173070833536068
21	GO:0042742	defense response to bacterium	0.530970545692311	1.84940792990633	0.00212961699853949
22	GO:0010714	positive regulation of collagen metabolic process	-0.830198745420127	-2.12299090995196	0.00217402673471213
23	GO:0042113	B cell activation	0.460051401892684	1.70717075432253	0.00231802607084761
24	GO:0009617	response to bacterium	0.425576025632302	1.6446774666462	0.00231802607084761
25	GO:0002764	immune response-regulating signaling pathway	0.453020624973408	1.71083938638762	0.00231802607084761
26	GO:0050851	antigen receptor-mediated signaling pathway	0.530942535393565	1.84159025421595	0.00231802607084761
27	GO:0140053	mitochondrial gene expression	-0.504807567169442	-1.91640637059133	0.00231802607084761
28	GO:0019724	B cell mediated immunity	0.555275587181351	1.88740972366892	0.00239265854508835
29	GO:0032967	positive regulation of collagen biosynthetic process	-0.851713688828544	-2.1078258356693	0.0034981986897006
30	GO:0006910	phagocytosis, recognition	0.747841830747698	2.02451304147611	0.00358602831821991
31	GO:0002250	adaptive immune response	0.426751124667156	1.62719659224713	0.00360938747161881
32	GO:0042273	ribosomal large subunit biogenesis	-0.566027098482869	-1.98634659802205	0.00388474024278423
33	GO:0002768	immune response-regulating cell surface receptor signaling pathway	0.502722200545099	1.78291433197025	0.00388474024278423
34	GO:0009451	RNA modification	-0.479737746850712	-1.87849838220018	0.00388474024278423
35	GO:0000154	rRNA modification	-0.695023795496443	-2.0309550416993	0.0057393507136941
36	GO:0000470	maturation of LSU-rRNA	-0.694823287518824	-2.01446684779445	0.005913295804101
37	GO:0030490	maturation of SSU-rRNA	-0.605381326005221	-1.99642285601719	0.00599317949218672
38	GO:0016064	immunoglobulin mediated immune response	0.536256098055051	1.81833906437222	0.00656198241977831
39	GO:0042274	ribosomal small subunit biogenesis	-0.557116539107362	-1.95791082850732	0.00704960021151241
40	GO:0006909	phagocytosis	0.475116006459045	1.71556068321236	0.00704960021151241
41	GO:1901137	carbohydrate derivative biosynthetic process	-0.336803351252976	-1.48773972609016	0.00708624944302781
42	GO:0008033	tRNA processing	-0.472369823562712	-1.80963970852028	0.0071256490436579
43	GO:0002218	activation of innate immune response	0.673861410664839	1.95099603687047	0.00888622432912187
44	GO:0032543	mitochondrial translation	-0.538783529856213	-1.92547018795185	0.00909308812451647
45	GO:0002833	positive regulation of response to biotic stimulus	0.516119870704974	1.7702982726631	0.0100628359769742
46	GO:0006520	cellular amino acid metabolic process	-0.412818670576661	-1.68200053856877	0.0103788011340578
47	GO:0016045	detection of bacterium	0.854246432974411	1.92665449663755	0.0107445900035118
48	GO:0098543	detection of other organism	0.854246432974411	1.92665449663755	0.0107445900035118
49	GO:0019882	antigen processing and presentation	0.557555610316086	1.81284993306356	0.0115656351195863
50	GO:0050867	positive regulation of cell activation	0.424756185042872	1.60115272178959	0.0116385424102412
51	GO:0002696	positive regulation of leukocyte activation	0.428220130870917	1.60121956307929	0.0155861038000802
52	GO:0019884	antigen processing and presentation of exogenous antigen	0.690754502276277	1.91396124531681	0.0155861038000802
53	GO:0019731	antibacterial humoral response	0.84229866993185	1.89970769241086	0.0179196532703112
54	GO:0019233	sensory perception of pain	-0.550841348717031	-1.86569643042826	0.019849859281777
55	GO:0010738	regulation of protein kinase A signaling	0.836374709307901	1.90332563689931	0.0219045798423221
56	GO:0002831	regulation of response to biotic stimulus	0.434271848030747	1.60506417390939	0.0221974401795833
57	GO:0000462	maturation of SSU-rRNA from tricistronic rRNA transcript (SSU-rRNA, 5.8S rRNA, LSU-rRNA)	-0.63052279789588	-1.9265035503185	0.0221974401795833
58	GO:0046394	carboxylic acid biosynthetic process	-0.396591928052976	-1.59593449453508	0.0243610737590349
59	GO:0032965	regulation of collagen biosynthetic process	-0.721808276863526	-1.99141198685061	0.0247360984291526
60	GO:0002478	antigen processing and presentation of exogenous peptide antigen	0.717144768348233	1.89355326151555	0.0248702073056739
61	GO:0010573	vascular endothelial growth factor production	-0.777652635103012	-1.87220220562101	0.027544677630884
62	GO:0002694	regulation of leukocyte activation	0.381387851145519	1.48426664575415	0.0282506741939351
63	GO:0009130	pyrimidine nucleoside monophosphate biosynthetic process	-0.776033646825865	-1.86830448408504	0.0282506741939351
64	GO:0000463	maturation of LSU-rRNA from tricistronic rRNA transcript (SSU-rRNA, 5.8S rRNA, LSU-rRNA)	-0.76321206485877	-1.95169203157598	0.0283106397434128
65	GO:0010608	posttranscriptional regulation of gene expression	-0.317063967938134	-1.41298725380726	0.028562855770895
66	GO:0022618	ribonucleoprotein complex assembly	-0.402319875301499	-1.60496201955244	0.028905915277586
67	GO:0001568	blood vessel development	-0.31619698525574	-1.39181152979792	0.028905915277586
68	GO:0050865	regulation of cell activation	0.369485410539242	1.44882980764237	0.0303533988184942
69	GO:0002449	lymphocyte mediated immunity	0.430682427802988	1.59352078726508	0.0303533988184942
70	GO:1903825	organic acid transmembrane transport	-0.491292375645887	-1.78881389369464	0.0303533988184942
71	GO:1905039	carboxylic acid transmembrane transport	-0.491292375645887	-1.78881389369464	0.0303533988184942
72	GO:0002693	positive regulation of cellular extravasation	-0.771674751589444	-1.85781042426022	0.0303533988184942
73	GO:0010712	regulation of collagen metabolic process	-0.680523454231704	-1.92771497058869	0.0303533988184942
74	GO:0009124	nucleoside monophosphate biosynthetic process	-0.589621112763788	-1.86776492644849	0.0312955384759826
75	GO:0072683	T cell extravasation	-0.815764569112678	-1.86487845378936	0.0319325813063535
76	GO:0000460	maturation of 5.8S rRNA	-0.613943212001742	-1.87584617330619	0.0319325813063535
77	GO:0043039	tRNA aminoacylation	-0.596156731421304	-1.91253966446528	0.0319325813063535
78	GO:0000054	ribosomal subunit export from nucleus	-0.742535708728647	-1.87118736980001	0.0319325813063535
79	GO:0033750	ribosome localization	-0.742535708728647	-1.87118736980001	0.0319325813063535
80	GO:0043038	amino acid activation	-0.594485563721049	-1.91039929929843	0.0322181975785269
81	GO:0009595	detection of biotic stimulus	0.728893878380864	1.84695492076395	0.0324656822284402
82	GO:0071826	ribonucleoprotein complex subunit organization	-0.397589361839284	-1.59846666029786	0.0324656822284402
83	GO:2000351	regulation of endothelial cell apoptotic process	-0.622948508822688	-1.84982609807897	0.0328745325247675
84	GO:1990823	response to leukemia inhibitory factor	-0.449926975314131	-1.68891133689495	0.0350864256823017
85	GO:0016053	organic acid biosynthetic process	-0.393649900345695	-1.58842924206834	0.0365169416163873
86	GO:0006413	translational initiation	-0.457237092763376	-1.67995212846483	0.0365169416163873
87	GO:1904035	regulation of epithelial cell apoptotic process	-0.547307880207216	-1.84313470463849	0.0365356870660069
88	GO:0035239	tube morphogenesis	-0.301566570585286	-1.34937431727008	0.0372224261414
89	GO:0009101	glycoprotein biosynthetic process	-0.374936535596301	-1.52994785426038	0.0372224261414
90	GO:0001944	vasculature development	-0.311625826847399	-1.38599443121181	0.0372224261414
91	GO:0032964	collagen biosynthetic process	-0.673962019632944	-1.88837873787414	0.0396847457348237
92	GO:0006418	tRNA aminoacylation for protein translation	-0.60323999899176	-1.88975779892504	0.0396847457348237
93	GO:0050673	epithelial cell proliferation	-0.358305797092268	-1.50251907159246	0.0396847457348237
94	GO:0072577	endothelial cell apoptotic process	-0.60452179708835	-1.84705991951768	0.0396847457348237
95	GO:0002504	antigen processing and presentation of peptide or polysaccharide antigen via MHC class II	0.72898199682462	1.83342506644978	0.0396847457348237
96	GO:0051249	regulation of lymphocyte activation	0.379685131880608	1.46112343986456	0.0396847457348237
97	GO:0140029	exocytic process	0.573078193595664	1.79612817848412	0.0396847457348237
98	GO:0098581	detection of external biotic stimulus	0.769738340647695	1.85048433743034	0.0396847457348237
99	GO:0034755	iron ion transmembrane transport	-0.728353891480826	-1.83544924030269	0.0396847457348237
100	GO:0045089	positive regulation of innate immune response	0.518277563599658	1.752223410714	0.0396847457348237
101	GO:1990830	cellular response to leukemia inhibitory factor	-0.454829170468303	-1.70706716090153	0.039887408949093
102	GO:0031347	regulation of defense response	0.381009425234229	1.47525879756452	0.0429787628217143
103	GO:0044458	motile cilium assembly	0.650358569140539	1.80203110192227	0.0429787628217143
104	GO:1904019	epithelial cell apoptotic process	-0.476414953836852	-1.73464464508913	0.0433433996963949
105	GO:0002460	adaptive immune response based on somatic recombination of immune receptors built from immunoglobulin superfamily domains	0.410554818395881	1.52997072602505	0.0438508716731884
106	GO:0046942	carboxylic acid transport	-0.413386531360869	-1.617603565762	0.044512388126126
107	GO:0002495	antigen processing and presentation of peptide antigen via MHC class II	0.735988951741586	1.82339189103831	0.0460172717935824
108	GO:0045088	regulation of innate immune response	0.453493603116163	1.60023952138744	0.0465744020681337
109	GO:1901605	alpha-amino acid metabolic process	-0.409262266826516	-1.57674781905582	0.0489333316871752
110	GO:0001522	pseudouridine synthesis	-0.718449669560507	-1.88388606212221	0.0489333316871752
