	GOterm	Description	ES	NES	Padj
1	GO:0140101	catalytic activity, acting on a tRNA	-0.532967013789004	-2.01955959339749	0.000533979210583119
2	GO:0003823	antigen binding	0.684690845744057	2.10889090341793	0.000816646762887204
3	GO:0034987	immunoglobulin receptor binding	0.821256443894677	2.08521893200841	0.00393242128655547
4	GO:0016741	transferase activity, transferring one-carbon groups	-0.437896564123741	-1.76663986238725	0.0094822696330002
5	GO:0004888	transmembrane signaling receptor activity	0.426713029908468	1.62741101256412	0.0116658179298386
6	GO:0030515	snoRNA binding	-0.675483662534641	-1.95746437098958	0.0295019430577552
7	GO:0008168	methyltransferase activity	-0.413696050078626	-1.64757337506273	0.0310829313198293
8	GO:0008757	S-adenosylmethionine-dependent methyltransferase activity	-0.443905835587594	-1.72040871268587	0.0337927736917162
9	GO:0023023	MHC protein complex binding	0.810235749397888	1.86271966644639	0.048110296779504
10	GO:0008173	RNA methyltransferase activity	-0.53017652736878	-1.77562448887673	0.048110296779504
11	GO:0005125	cytokine activity	-0.545251191265631	-1.79705878317267	0.048110296779504
12	GO:0140098	catalytic activity, acting on RNA	-0.331789321970597	-1.42250935003496	0.048110296779504
13	GO:0004812	aminoacyl-tRNA ligase activity	-0.595549451588185	-1.85005539298121	0.048110296779504
14	GO:0016875	ligase activity, forming carbon-oxygen bonds	-0.595549451588185	-1.85005539298121	0.048110296779504
15	GO:0038023	signaling receptor activity	0.377264081709946	1.4832788490207	0.0487052088573691
16	GO:0060089	molecular transducer activity	0.377264081709946	1.4832788490207	0.0487052088573691
